<?xml version="1.0"?>
<robot name="myfirst">

  <link name="base_link">
    <visual>
      <geometry>
        <box size = "1 1 1"/>
      </geometry>
    </visual>
  </link>

  <link name="pivot_disk">
    <visual>
      <origin xyz="0 0 0.05" rpy="0 0 0" />
      <geometry>
        <cylinder length="0.1" radius="0.4"/>
      </geometry>
    </visual>

  </link>

  <link name="bottom_arm">
    <visual>
      <origin xyz="0 0 0.4" rpy="0 0 0" />
      <geometry>
        <cylinder length="0.8" radius="0.1"/>
      </geometry>
    </visual>
  </link>

  <link name="mid_arm">
    <visual>
      <origin xyz="0 0 0.4" rpy="0 0 0" />
      <geometry>
        <cylinder length="0.8" radius="0.1"/>
      </geometry>
    </visual>
  </link>

  <link name="upper_arm">
    <visual>
      <origin xyz="0 0 0.3" rpy="0 0 0" />
      <geometry>
        <cylinder length="0.6" radius="0.1"/>
      </geometry>
    </visual>
  </link>

  <!-- <link name="hand">
    <visual>
          <origin xyz="0 0 0.2" rpy="0 0 0" />
      <geometry>
        <box size = "0.4 0.4 0.4"/>
      </geometry>
    </visual>
  </link> -->

  <link name="hand">
    <visual>
          <origin xyz="0 0 0.1" rpy="0 0 0" />
      <geometry>
        <cylinder length="0.2" radius="0.1"/>
      </geometry>
    </visual>
  </link>

  

  <joint name="base_to_pivot_disk" type = "continuous">
    <parent link = "base_link"/>
    <child link = "pivot_disk"/>
    <origin xyz = "0 0 0.5"/>
    <axis xyz = "0 0 1"/>
    <limit effort="7" velocity="15"/>
    <!-- <limit effort="1000.0" lower="-3.14" upper="3.14" velocity="0.5"/> -->
  </joint>

  <joint name="disk_to_bot" type = "continuous">
    <parent link = "pivot_disk"/>
    <child link = "bottom_arm"/>
    <origin xyz = "0 0 0.1"/>
    <limit effort="7" velocity="15"/>

    <!-- <limit effort="1000.0" lower="-0.6" upper="0.6" velocity="0.5"/> -->
  </joint>

  <joint name="bot_to_mid" type = "continuous">
    <parent link = "bottom_arm"/>
    <child link = "mid_arm"/>
    <origin xyz = "0 0 0.8"/>
    <limit effort="7" velocity="15"/>

  </joint>

  <joint name="mid_to_upper" type = "continuous">
    <parent link = "mid_arm"/>
    <child link = "upper_arm"/>
    <origin xyz = "0 0 0.8"/>
    <limit effort="7" velocity="15"/>

    <!-- <limit effort="1000.0" lower="-1.57" upper="1.57" velocity="0.5"/> -->
  </joint>

  <joint name="mid_to_hand" type = "continuous">
    <parent link = "upper_arm"/>
    <child link = "hand"/>
    <origin xyz = "0 0 0.6"/>
    <axis xyz = "0 0 1"/>
    <limit effort="7" velocity="15"/>

  </joint>

</robot>